…
```r
# "10:2 FTOH" "12:2 FTOH" "4:2 FTOH"  "6:2 FTOH"  "6:2 FTS"   "8:2 FTOH"  "8:2 FTS"   "N-EtFOSA"  "N-EtFOSE"  "N-MeFOSA" 
# "N-MeFOSE"  "PFBA"      "PFDoDA"    "PFDoS"     "PFHpS"     "PFNS"      "PFPA"      "PFPeS"     "PFPS"      "PFTeDA"   
# "PFTeS"     "PFTrDA"    "PFTrS"     "PFUnS"
df
```

```
## # A tibble: 24 x 2
##    PFAS          n
##    <chr>     <int>
##  1 10:2 FTOH     3
##  2 12:2 FTOH     3
##  3 4:2 FTOH      3
##  4 6:2 FTOH      3
##  5 6:2 FTS       3
##  6 8:2 FTOH      3
##  7 8:2 FTS       3
##  8 N-EtFOSA      3
##  9 N-EtFOSE      3
## 10 N-MeFOSA      3
## # ... with 14 more rows
```
…
